{

	"id": "course1",
	"name": "Javascript",
	"description": "JavaScript is among the most powerful and flexible programming languages of the web. It powers the dynamic behavior on most websites, including this one.",
	"price": 2000,
	"slots": 10,
	"schedule": "Aug 1 - 5, 2022: Mon to Fri - 8am to 5pm",
	"instructor": "Sir Tee Jae Calinao",
	"isActive": true,
	"enrollees": [
		{
			"id": 1,
			"userId": "user1",
			"username": "JosefOrtega",
			"isPaid": true,
			"dateEnrolled": "July 26, 2022" 
		}
	]
},
{

	"id": "course2",
	"name": "MongoDB",
	"description": "Browse all of MongoDB's online tutorial courses and learn new skills for free. Get certified for a MongoDB course today!",
	"price": 2000,
	"slots": 10,
	"schedule": "Aug 1 - 5, 2022: Mon to Fri - 8am to 5pm",
	"instructor": "Ma'am Christine Garcia",
	"isActive": true,
	"enrollees": [
		{
			"id": 2,
			"userId": "user2",
			"username": "Lalisa",
			"isPaid": true,
			"dateEnrolled": "July 26, 2022"
		}
	]

}